{
  "configVersion": 2,
  "packages": [
    {
      "name": "animated_icon_button",
      "rootUri": "file:///C:/Android/flutter/.pub-cache/hosted/pub.dartlang.org/animated_icon_button-0.3.0",
      "packageUri": "lib/",
      "languageVersion": "2.7"
    },
    {
      "name": "apple_sign_in",
      "rootUri": "file:///C:/Android/flutter/.pub-cache/hosted/pub.dartlang.org/apple_sign_in-0.1.0",
      "packageUri": "lib/",
      "languageVersion": "2.2"
    },
    {
      "name": "archive",
      "rootUri": "file:///C:/Android/flutter/.pub-cache/hosted/pub.dartlang.org/archive-2.0.13",
      "packageUri": "lib/",
      "languageVersion": "2.0"
    },
    {
      "name": "args",
      "rootUri": "file:///C:/Android/flutter/.pub-cache/hosted/pub.dartlang.org/args-1.6.0",
      "packageUri": "lib/",
      "languageVersion": "2.3"
    },
    {
      "name": "async",
      "rootUri": "file:///C:/Android/flutter/.pub-cache/hosted/pub.dartlang.org/async-2.5.0-nullsafety.1",
      "packageUri": "lib/",
      "languageVersion": "2.10"
    },
    {
      "name": "boolean_selector",
      "rootUri": "file:///C:/Android/flutter/.pub-cache/hosted/pub.dartlang.org/boolean_selector-2.1.0-nullsafety.1",
      "packageUri": "lib/",
      "languageVersion": "2.10"
    },
    {
      "name": "cached_network_image",
      "rootUri": "file:///C:/Android/flutter/.pub-cache/hosted/pub.dartlang.org/cached_network_image-2.5.0",
      "packageUri": "lib/",
      "languageVersion": "2.10"
    },
    {
      "name": "carousel_slider",
      "rootUri": "file:///C:/Android/flutter/.pub-cache/hosted/pub.dartlang.org/carousel_slider-3.0.0",
      "packageUri": "lib/",
      "languageVersion": "2.6"
    },
    {
      "name": "characters",
      "rootUri": "file:///C:/Android/flutter/.pub-cache/hosted/pub.dartlang.org/characters-1.1.0-nullsafety.3",
      "packageUri": "lib/",
      "languageVersion": "2.10"
    },
    {
      "name": "charcode",
      "rootUri": "file:///C:/Android/flutter/.pub-cache/hosted/pub.dartlang.org/charcode-1.2.0-nullsafety.1",
      "packageUri": "lib/",
      "languageVersion": "2.10"
    },
    {
      "name": "clock",
      "rootUri": "file:///C:/Android/flutter/.pub-cache/hosted/pub.dartlang.org/clock-1.1.0-nullsafety.1",
      "packageUri": "lib/",
      "languageVersion": "2.10"
    },
    {
      "name": "cloud_firestore",
      "rootUri": "file:///C:/Android/flutter/.pub-cache/hosted/pub.dartlang.org/cloud_firestore-0.14.4",
      "packageUri": "lib/",
      "languageVersion": "2.1"
    },
    {
      "name": "cloud_firestore_platform_interface",
      "rootUri": "file:///C:/Android/flutter/.pub-cache/hosted/pub.dartlang.org/cloud_firestore_platform_interface-2.2.1",
      "packageUri": "lib/",
      "languageVersion": "2.0"
    },
    {
      "name": "cloud_firestore_web",
      "rootUri": "file:///C:/Android/flutter/.pub-cache/hosted/pub.dartlang.org/cloud_firestore_web-0.2.1+2",
      "packageUri": "lib/",
      "languageVersion": "2.1"
    },
    {
      "name": "collection",
      "rootUri": "file:///C:/Android/flutter/.pub-cache/hosted/pub.dartlang.org/collection-1.15.0-nullsafety.3",
      "packageUri": "lib/",
      "languageVersion": "2.10"
    },
    {
      "name": "connectivity",
      "rootUri": "file:///C:/Android/flutter/.pub-cache/hosted/pub.dartlang.org/connectivity-2.0.2",
      "packageUri": "lib/",
      "languageVersion": "2.1"
    },
    {
      "name": "connectivity_for_web",
      "rootUri": "file:///C:/Android/flutter/.pub-cache/hosted/pub.dartlang.org/connectivity_for_web-0.3.1+4",
      "packageUri": "lib/",
      "languageVersion": "2.6"
    },
    {
      "name": "connectivity_macos",
      "rootUri": "file:///C:/Android/flutter/.pub-cache/hosted/pub.dartlang.org/connectivity_macos-0.1.0+7",
      "packageUri": "lib/",
      "languageVersion": "2.1"
    },
    {
      "name": "connectivity_platform_interface",
      "rootUri": "file:///C:/Android/flutter/.pub-cache/hosted/pub.dartlang.org/connectivity_platform_interface-1.0.6",
      "packageUri": "lib/",
      "languageVersion": "2.1"
    },
    {
      "name": "convert",
      "rootUri": "file:///C:/Android/flutter/.pub-cache/hosted/pub.dartlang.org/convert-2.1.1",
      "packageUri": "lib/",
      "languageVersion": "1.17"
    },
    {
      "name": "crypto",
      "rootUri": "file:///C:/Android/flutter/.pub-cache/hosted/pub.dartlang.org/crypto-2.1.5",
      "packageUri": "lib/",
      "languageVersion": "2.3"
    },
    {
      "name": "cupertino_icons",
      "rootUri": "file:///C:/Android/flutter/.pub-cache/hosted/pub.dartlang.org/cupertino_icons-1.0.0",
      "packageUri": "lib/",
      "languageVersion": "2.0"
    },
    {
      "name": "dio",
      "rootUri": "file:///C:/Android/flutter/.pub-cache/hosted/pub.dartlang.org/dio-3.0.10",
      "packageUri": "lib/",
      "languageVersion": "2.4"
    },
    {
      "name": "dotted_border",
      "rootUri": "file:///C:/Android/flutter/.pub-cache/git/Flutter-Dot-Border-57f0d3d9dd3233aec4893fe91017f485fcd0ca1b/",
      "packageUri": "lib/",
      "languageVersion": "2.2"
    },
    {
      "name": "fake_async",
      "rootUri": "file:///C:/Android/flutter/.pub-cache/hosted/pub.dartlang.org/fake_async-1.2.0-nullsafety.1",
      "packageUri": "lib/",
      "languageVersion": "2.10"
    },
    {
      "name": "ffi",
      "rootUri": "file:///C:/Android/flutter/.pub-cache/hosted/pub.dartlang.org/ffi-0.1.3",
      "packageUri": "lib/",
      "languageVersion": "2.6"
    },
    {
      "name": "file",
      "rootUri": "file:///C:/Android/flutter/.pub-cache/hosted/pub.dartlang.org/file-5.2.1",
      "packageUri": "lib/",
      "languageVersion": "2.2"
    },
    {
      "name": "firebase",
      "rootUri": "file:///C:/Android/flutter/.pub-cache/hosted/pub.dartlang.org/firebase-7.3.3",
      "packageUri": "lib/",
      "languageVersion": "2.7"
    },
    {
      "name": "firebase_analytics",
      "rootUri": "file:///C:/Android/flutter/.pub-cache/hosted/pub.dartlang.org/firebase_analytics-6.3.0",
      "packageUri": "lib/",
      "languageVersion": "2.1"
    },
    {
      "name": "firebase_analytics_platform_interface",
      "rootUri": "file:///C:/Android/flutter/.pub-cache/hosted/pub.dartlang.org/firebase_analytics_platform_interface-1.0.3",
      "packageUri": "lib/",
      "languageVersion": "2.0"
    },
    {
      "name": "firebase_analytics_web",
      "rootUri": "file:///C:/Android/flutter/.pub-cache/hosted/pub.dartlang.org/firebase_analytics_web-0.1.1",
      "packageUri": "lib/",
      "languageVersion": "2.7"
    },
    {
      "name": "firebase_auth",
      "rootUri": "file:///C:/Android/flutter/.pub-cache/hosted/pub.dartlang.org/firebase_auth-0.18.4+1",
      "packageUri": "lib/",
      "languageVersion": "2.0"
    },
    {
      "name": "firebase_auth_platform_interface",
      "rootUri": "file:///C:/Android/flutter/.pub-cache/hosted/pub.dartlang.org/firebase_auth_platform_interface-2.1.4",
      "packageUri": "lib/",
      "languageVersion": "2.0"
    },
    {
      "name": "firebase_auth_web",
      "rootUri": "file:///C:/Android/flutter/.pub-cache/hosted/pub.dartlang.org/firebase_auth_web-0.3.2+3",
      "packageUri": "lib/",
      "languageVersion": "2.0"
    },
    {
      "name": "firebase_core",
      "rootUri": "file:///C:/Android/flutter/.pub-cache/hosted/pub.dartlang.org/firebase_core-0.5.3",
      "packageUri": "lib/",
      "languageVersion": "2.1"
    },
    {
      "name": "firebase_core_platform_interface",
      "rootUri": "file:///C:/Android/flutter/.pub-cache/hosted/pub.dartlang.org/firebase_core_platform_interface-2.1.0",
      "packageUri": "lib/",
      "languageVersion": "2.1"
    },
    {
      "name": "firebase_core_web",
      "rootUri": "file:///C:/Android/flutter/.pub-cache/hosted/pub.dartlang.org/firebase_core_web-0.2.1+1",
      "packageUri": "lib/",
      "languageVersion": "2.1"
    },
    {
      "name": "firebase_storage",
      "rootUri": "file:///C:/Android/flutter/.pub-cache/hosted/pub.dartlang.org/firebase_storage-5.2.0",
      "packageUri": "lib/",
      "languageVersion": "2.0"
    },
    {
      "name": "firebase_storage_platform_interface",
      "rootUri": "file:///C:/Android/flutter/.pub-cache/hosted/pub.dartlang.org/firebase_storage_platform_interface-1.0.2",
      "packageUri": "lib/",
      "languageVersion": "2.0"
    },
    {
      "name": "firebase_storage_web",
      "rootUri": "file:///C:/Android/flutter/.pub-cache/hosted/pub.dartlang.org/firebase_storage_web-0.1.1+1",
      "packageUri": "lib/",
      "languageVersion": "2.7"
    },
    {
      "name": "flutter",
      "rootUri": "file:///C:/Android/flutter/packages/flutter",
      "packageUri": "lib/",
      "languageVersion": "2.10"
    },
    {
      "name": "flutter_blurhash",
      "rootUri": "file:///C:/Android/flutter/.pub-cache/hosted/pub.dartlang.org/flutter_blurhash-0.5.0",
      "packageUri": "lib/",
      "languageVersion": "2.4"
    },
    {
      "name": "flutter_cache_manager",
      "rootUri": "file:///C:/Android/flutter/.pub-cache/hosted/pub.dartlang.org/flutter_cache_manager-2.1.1",
      "packageUri": "lib/",
      "languageVersion": "2.6"
    },
    {
      "name": "flutter_facebook_login",
      "rootUri": "file:///C:/Android/flutter/.pub-cache/hosted/pub.dartlang.org/flutter_facebook_login-3.0.0",
      "packageUri": "lib/",
      "languageVersion": "2.0"
    },
    {
      "name": "flutter_icons",
      "rootUri": "file:///C:/Android/flutter/.pub-cache/hosted/pub.dartlang.org/flutter_icons-1.1.0",
      "packageUri": "lib/",
      "languageVersion": "2.0"
    },
    {
      "name": "flutter_localizations",
      "rootUri": "file:///C:/Android/flutter/packages/flutter_localizations",
      "packageUri": "lib/",
      "languageVersion": "2.2"
    },
    {
      "name": "flutter_plugin_android_lifecycle",
      "rootUri": "file:///C:/Android/flutter/.pub-cache/hosted/pub.dartlang.org/flutter_plugin_android_lifecycle-1.0.11",
      "packageUri": "lib/",
      "languageVersion": "2.1"
    },
    {
      "name": "flutter_slidable",
      "rootUri": "file:///C:/Android/flutter/.pub-cache/hosted/pub.dartlang.org/flutter_slidable-0.5.7",
      "packageUri": "lib/",
      "languageVersion": "1.19"
    },
    {
      "name": "flutter_staggered_animations",
      "rootUri": "file:///C:/Android/flutter/.pub-cache/hosted/pub.dartlang.org/flutter_staggered_animations-0.1.3",
      "packageUri": "lib/",
      "languageVersion": "2.1"
    },
    {
      "name": "flutter_test",
      "rootUri": "file:///C:/Android/flutter/packages/flutter_test",
      "packageUri": "lib/",
      "languageVersion": "2.2"
    },
    {
      "name": "flutter_web_plugins",
      "rootUri": "file:///C:/Android/flutter/packages/flutter_web_plugins",
      "packageUri": "lib/",
      "languageVersion": "2.0"
    },
    {
      "name": "google_fonts",
      "rootUri": "file:///C:/Android/flutter/.pub-cache/hosted/pub.dartlang.org/google_fonts-1.1.2",
      "packageUri": "lib/",
      "languageVersion": "2.3"
    },
    {
      "name": "google_sign_in",
      "rootUri": "file:///C:/Android/flutter/.pub-cache/hosted/pub.dartlang.org/google_sign_in-4.5.9",
      "packageUri": "lib/",
      "languageVersion": "2.1"
    },
    {
      "name": "google_sign_in_platform_interface",
      "rootUri": "file:///C:/Android/flutter/.pub-cache/hosted/pub.dartlang.org/google_sign_in_platform_interface-1.1.2",
      "packageUri": "lib/",
      "languageVersion": "2.1"
    },
    {
      "name": "google_sign_in_web",
      "rootUri": "file:///C:/Android/flutter/.pub-cache/hosted/pub.dartlang.org/google_sign_in_web-0.9.2",
      "packageUri": "lib/",
      "languageVersion": "2.6"
    },
    {
      "name": "http",
      "rootUri": "file:///C:/Android/flutter/.pub-cache/hosted/pub.dartlang.org/http-0.12.2",
      "packageUri": "lib/",
      "languageVersion": "2.4"
    },
    {
      "name": "http_parser",
      "rootUri": "file:///C:/Android/flutter/.pub-cache/hosted/pub.dartlang.org/http_parser-3.1.4",
      "packageUri": "lib/",
      "languageVersion": "2.3"
    },
    {
      "name": "image",
      "rootUri": "file:///C:/Android/flutter/.pub-cache/hosted/pub.dartlang.org/image-2.1.19",
      "packageUri": "lib/",
      "languageVersion": "2.0"
    },
    {
      "name": "image_picker",
      "rootUri": "file:///C:/Android/flutter/.pub-cache/hosted/pub.dartlang.org/image_picker-0.6.7+22",
      "packageUri": "lib/",
      "languageVersion": "2.1"
    },
    {
      "name": "image_picker_platform_interface",
      "rootUri": "file:///C:/Android/flutter/.pub-cache/hosted/pub.dartlang.org/image_picker_platform_interface-1.1.6",
      "packageUri": "lib/",
      "languageVersion": "2.5"
    },
    {
      "name": "intl",
      "rootUri": "file:///C:/Android/flutter/.pub-cache/hosted/pub.dartlang.org/intl-0.16.1",
      "packageUri": "lib/",
      "languageVersion": "2.5"
    },
    {
      "name": "js",
      "rootUri": "file:///C:/Android/flutter/.pub-cache/hosted/pub.dartlang.org/js-0.6.2",
      "packageUri": "lib/",
      "languageVersion": "2.0"
    },
    {
      "name": "matcher",
      "rootUri": "file:///C:/Android/flutter/.pub-cache/hosted/pub.dartlang.org/matcher-0.12.10-nullsafety.1",
      "packageUri": "lib/",
      "languageVersion": "2.10"
    },
    {
      "name": "meta",
      "rootUri": "file:///C:/Android/flutter/.pub-cache/hosted/pub.dartlang.org/meta-1.3.0-nullsafety.3",
      "packageUri": "lib/",
      "languageVersion": "2.10"
    },
    {
      "name": "modal_bottom_sheet",
      "rootUri": "file:///C:/Android/flutter/.pub-cache/hosted/pub.dartlang.org/modal_bottom_sheet-1.0.0+1",
      "packageUri": "lib/",
      "languageVersion": "2.0"
    },
    {
      "name": "nested",
      "rootUri": "file:///C:/Android/flutter/.pub-cache/hosted/pub.dartlang.org/nested-0.0.4",
      "packageUri": "lib/",
      "languageVersion": "2.2"
    },
    {
      "name": "octo_image",
      "rootUri": "file:///C:/Android/flutter/.pub-cache/hosted/pub.dartlang.org/octo_image-0.3.0",
      "packageUri": "lib/",
      "languageVersion": "2.7"
    },
    {
      "name": "path",
      "rootUri": "file:///C:/Android/flutter/.pub-cache/hosted/pub.dartlang.org/path-1.8.0-nullsafety.1",
      "packageUri": "lib/",
      "languageVersion": "2.10"
    },
    {
      "name": "path_drawing",
      "rootUri": "file:///C:/Android/flutter/.pub-cache/hosted/pub.dartlang.org/path_drawing-0.4.1+1",
      "packageUri": "lib/",
      "languageVersion": "1.19"
    },
    {
      "name": "path_parsing",
      "rootUri": "file:///C:/Android/flutter/.pub-cache/hosted/pub.dartlang.org/path_parsing-0.1.4",
      "packageUri": "lib/",
      "languageVersion": "1.19"
    },
    {
      "name": "path_provider",
      "rootUri": "file:///C:/Android/flutter/.pub-cache/hosted/pub.dartlang.org/path_provider-1.6.27",
      "packageUri": "lib/",
      "languageVersion": "2.1"
    },
    {
      "name": "path_provider_linux",
      "rootUri": "file:///C:/Android/flutter/.pub-cache/hosted/pub.dartlang.org/path_provider_linux-0.0.1+2",
      "packageUri": "lib/",
      "languageVersion": "2.1"
    },
    {
      "name": "path_provider_macos",
      "rootUri": "file:///C:/Android/flutter/.pub-cache/hosted/pub.dartlang.org/path_provider_macos-0.0.4+8",
      "packageUri": "lib/",
      "languageVersion": "2.1"
    },
    {
      "name": "path_provider_platform_interface",
      "rootUri": "file:///C:/Android/flutter/.pub-cache/hosted/pub.dartlang.org/path_provider_platform_interface-1.0.4",
      "packageUri": "lib/",
      "languageVersion": "2.1"
    },
    {
      "name": "path_provider_windows",
      "rootUri": "file:///C:/Android/flutter/.pub-cache/hosted/pub.dartlang.org/path_provider_windows-0.0.4+3",
      "packageUri": "lib/",
      "languageVersion": "2.1"
    },
    {
      "name": "pedantic",
      "rootUri": "file:///C:/Android/flutter/.pub-cache/hosted/pub.dartlang.org/pedantic-1.9.2",
      "packageUri": "lib/",
      "languageVersion": "2.1"
    },
    {
      "name": "petitparser",
      "rootUri": "file:///C:/Android/flutter/.pub-cache/hosted/pub.dartlang.org/petitparser-3.1.0",
      "packageUri": "lib/",
      "languageVersion": "2.7"
    },
    {
      "name": "pinput",
      "rootUri": "file:///C:/Android/flutter/.pub-cache/hosted/pub.dartlang.org/pinput-1.0.0",
      "packageUri": "lib/",
      "languageVersion": "2.7"
    },
    {
      "name": "platform",
      "rootUri": "file:///C:/Android/flutter/.pub-cache/hosted/pub.dartlang.org/platform-2.2.1",
      "packageUri": "lib/",
      "languageVersion": "1.24"
    },
    {
      "name": "plugin_platform_interface",
      "rootUri": "file:///C:/Android/flutter/.pub-cache/hosted/pub.dartlang.org/plugin_platform_interface-1.0.3",
      "packageUri": "lib/",
      "languageVersion": "2.1"
    },
    {
      "name": "process",
      "rootUri": "file:///C:/Android/flutter/.pub-cache/hosted/pub.dartlang.org/process-3.0.13",
      "packageUri": "lib/",
      "languageVersion": "2.0"
    },
    {
      "name": "provider",
      "rootUri": "file:///C:/Android/flutter/.pub-cache/hosted/pub.dartlang.org/provider-4.3.3",
      "packageUri": "lib/",
      "languageVersion": "2.7"
    },
    {
      "name": "qr",
      "rootUri": "file:///C:/Android/flutter/.pub-cache/hosted/pub.dartlang.org/qr-1.3.0",
      "packageUri": "lib/",
      "languageVersion": "2.6"
    },
    {
      "name": "qr_flutter",
      "rootUri": "file:///C:/Android/flutter/.pub-cache/hosted/pub.dartlang.org/qr_flutter-3.2.0",
      "packageUri": "lib/",
      "languageVersion": "2.6"
    },
    {
      "name": "quiver",
      "rootUri": "file:///C:/Android/flutter/.pub-cache/hosted/pub.dartlang.org/quiver-2.1.5",
      "packageUri": "lib/",
      "languageVersion": "2.0"
    },
    {
      "name": "responsive_builder",
      "rootUri": "file:///C:/Android/flutter/.pub-cache/hosted/pub.dartlang.org/responsive_builder-0.3.0",
      "packageUri": "lib/",
      "languageVersion": "2.1"
    },
    {
      "name": "rx_shared_preferences",
      "rootUri": "file:///C:/Android/flutter/.pub-cache/hosted/pub.dartlang.org/rx_shared_preferences-1.3.5",
      "packageUri": "lib/",
      "languageVersion": "2.7"
    },
    {
      "name": "rx_storage",
      "rootUri": "file:///C:/Android/flutter/.pub-cache/hosted/pub.dartlang.org/rx_storage-0.0.2",
      "packageUri": "lib/",
      "languageVersion": "2.7"
    },
    {
      "name": "rxdart",
      "rootUri": "file:///C:/Android/flutter/.pub-cache/hosted/pub.dartlang.org/rxdart-0.25.0",
      "packageUri": "lib/",
      "languageVersion": "2.6"
    },
    {
      "name": "shared_preferences",
      "rootUri": "file:///C:/Android/flutter/.pub-cache/hosted/pub.dartlang.org/shared_preferences-0.5.12+4",
      "packageUri": "lib/",
      "languageVersion": "2.1"
    },
    {
      "name": "shared_preferences_linux",
      "rootUri": "file:///C:/Android/flutter/.pub-cache/hosted/pub.dartlang.org/shared_preferences_linux-0.0.2+4",
      "packageUri": "lib/",
      "languageVersion": "2.1"
    },
    {
      "name": "shared_preferences_macos",
      "rootUri": "file:///C:/Android/flutter/.pub-cache/hosted/pub.dartlang.org/shared_preferences_macos-0.0.1+11",
      "packageUri": "lib/",
      "languageVersion": "2.1"
    },
    {
      "name": "shared_preferences_platform_interface",
      "rootUri": "file:///C:/Android/flutter/.pub-cache/hosted/pub.dartlang.org/shared_preferences_platform_interface-1.0.4",
      "packageUri": "lib/",
      "languageVersion": "2.1"
    },
    {
      "name": "shared_preferences_web",
      "rootUri": "file:///C:/Android/flutter/.pub-cache/hosted/pub.dartlang.org/shared_preferences_web-0.1.2+7",
      "packageUri": "lib/",
      "languageVersion": "2.1"
    },
    {
      "name": "shared_preferences_windows",
      "rootUri": "file:///C:/Android/flutter/.pub-cache/hosted/pub.dartlang.org/shared_preferences_windows-0.0.2+3",
      "packageUri": "lib/",
      "languageVersion": "2.1"
    },
    {
      "name": "shimmer",
      "rootUri": "file:///C:/Android/flutter/.pub-cache/hosted/pub.dartlang.org/shimmer-1.1.2",
      "packageUri": "lib/",
      "languageVersion": "1.20"
    },
    {
      "name": "sky_engine",
      "rootUri": "file:///C:/Android/flutter/bin/cache/pkg/sky_engine",
      "packageUri": "lib/",
      "languageVersion": "1.11"
    },
    {
      "name": "source_span",
      "rootUri": "file:///C:/Android/flutter/.pub-cache/hosted/pub.dartlang.org/source_span-1.8.0-nullsafety.2",
      "packageUri": "lib/",
      "languageVersion": "2.10"
    },
    {
      "name": "sqflite",
      "rootUri": "file:///C:/Android/flutter/.pub-cache/hosted/pub.dartlang.org/sqflite-1.3.2+4",
      "packageUri": "lib/",
      "languageVersion": "2.10"
    },
    {
      "name": "sqflite_common",
      "rootUri": "file:///C:/Android/flutter/.pub-cache/hosted/pub.dartlang.org/sqflite_common-1.0.3+1",
      "packageUri": "lib/",
      "languageVersion": "2.7"
    },
    {
      "name": "stack_trace",
      "rootUri": "file:///C:/Android/flutter/.pub-cache/hosted/pub.dartlang.org/stack_trace-1.10.0-nullsafety.1",
      "packageUri": "lib/",
      "languageVersion": "2.10"
    },
    {
      "name": "stream_channel",
      "rootUri": "file:///C:/Android/flutter/.pub-cache/hosted/pub.dartlang.org/stream_channel-2.1.0-nullsafety.1",
      "packageUri": "lib/",
      "languageVersion": "2.10"
    },
    {
      "name": "string_scanner",
      "rootUri": "file:///C:/Android/flutter/.pub-cache/hosted/pub.dartlang.org/string_scanner-1.1.0-nullsafety.1",
      "packageUri": "lib/",
      "languageVersion": "2.10"
    },
    {
      "name": "synchronized",
      "rootUri": "file:///C:/Android/flutter/.pub-cache/hosted/pub.dartlang.org/synchronized-2.2.0+2",
      "packageUri": "lib/",
      "languageVersion": "2.8"
    },
    {
      "name": "term_glyph",
      "rootUri": "file:///C:/Android/flutter/.pub-cache/hosted/pub.dartlang.org/term_glyph-1.2.0-nullsafety.1",
      "packageUri": "lib/",
      "languageVersion": "2.10"
    },
    {
      "name": "test_api",
      "rootUri": "file:///C:/Android/flutter/.pub-cache/hosted/pub.dartlang.org/test_api-0.2.19-nullsafety.2",
      "packageUri": "lib/",
      "languageVersion": "2.10"
    },
    {
      "name": "timeago",
      "rootUri": "file:///C:/Android/flutter/.pub-cache/hosted/pub.dartlang.org/timeago-2.0.30",
      "packageUri": "lib/",
      "languageVersion": "2.10"
    },
    {
      "name": "toast",
      "rootUri": "file:///C:/Android/flutter/.pub-cache/hosted/pub.dartlang.org/toast-0.1.5",
      "packageUri": "lib/",
      "languageVersion": "2.0"
    },
    {
      "name": "typed_data",
      "rootUri": "file:///C:/Android/flutter/.pub-cache/hosted/pub.dartlang.org/typed_data-1.3.0-nullsafety.3",
      "packageUri": "lib/",
      "languageVersion": "2.10"
    },
    {
      "name": "uuid",
      "rootUri": "file:///C:/Android/flutter/.pub-cache/hosted/pub.dartlang.org/uuid-2.2.2",
      "packageUri": "lib/",
      "languageVersion": "2.2"
    },
    {
      "name": "vector_math",
      "rootUri": "file:///C:/Android/flutter/.pub-cache/hosted/pub.dartlang.org/vector_math-2.1.0-nullsafety.3",
      "packageUri": "lib/",
      "languageVersion": "2.10"
    },
    {
      "name": "win32",
      "rootUri": "file:///C:/Android/flutter/.pub-cache/hosted/pub.dartlang.org/win32-1.7.4+1",
      "packageUri": "lib/",
      "languageVersion": "2.7"
    },
    {
      "name": "xdg_directories",
      "rootUri": "file:///C:/Android/flutter/.pub-cache/hosted/pub.dartlang.org/xdg_directories-0.1.2",
      "packageUri": "lib/",
      "languageVersion": "2.3"
    },
    {
      "name": "xml",
      "rootUri": "file:///C:/Android/flutter/.pub-cache/hosted/pub.dartlang.org/xml-4.5.1",
      "packageUri": "lib/",
      "languageVersion": "2.7"
    },
    {
      "name": "flutter_app_song_tien",
      "rootUri": "../",
      "packageUri": "lib/",
      "languageVersion": "2.7"
    }
  ],
  "generated": "2021-03-23T02:15:52.904933Z",
  "generator": "pub",
  "generatorVersion": "2.10.4"
}
